{ "columns":0,
 "grid":
    {
     "height":1,
     "orientation":"orthogonal",
     "width":1
    },
 "margin":0,
 "name":"tiles",
 "spacing":0,
 "tilecount":5,
 "tiledversion":"1.6.0",
 "tileheight":32,
 "tiles":[
        {
         "id":0,
         "image":"images\/wall.png",
         "imageheight":32,
         "imagewidth":32
        }, 
        {
         "id":1,
         "image":"images\/trampoline.png",
         "imageheight":32,
         "imagewidth":32
        }, 
        {
         "id":2,
         "image":"images\/spike.png",
         "imageheight":32,
         "imagewidth":32
        }, 
        {
         "animation":[
                {
                 "duration":100,
                 "tileid":7
                }, 
                {
                 "duration":100,
                 "tileid":8
                }],
         "id":7,
         "image":"images\/lava1.png",
         "imageheight":32,
         "imagewidth":32
        }, 
        {
         "id":8,
         "image":"images\/lava2.png",
         "imageheight":32,
         "imagewidth":32
        }],
 "tilewidth":32,
 "type":"tileset",
 "version":"1.6"
}