{ "compressionlevel":-1,
 "height":58,
 "infinite":false,
 "layers":[
        {
         "compression":"zlib",
         "data":"eJzt10EKgDAMRNH2\/pd2L1EinRKn+Q+ycSGSSVMcA3g2g+qOXryLZiYzQ\/QVbjOg+l71nnXpXydRJplnZHmm6JyvZK\/em057uFrVveV2XzpQ97Tb+7Am8\/\/0taBDPrXo\/7\/syONeFzoQAJc=",
         "encoding":"base64",
         "height":58,
         "id":1,
         "name":"Walls",
         "opacity":1,
         "type":"tilelayer",
         "visible":true,
         "width":25,
         "x":0,
         "y":0
        }, 
        {
         "compression":"zlib",
         "data":"eJzt01sOABAMRFGx\/0XbgLeij3s+SRqZqZRgWf79AIXIpG2UTe+eXGFtByTfKzXLWoYR1DqZOaNLn6S7l94T9m7d68zo6B7t\/0n7PJyjE9\/odw+5xfCy5wKsXgA5",
         "encoding":"base64",
         "height":58,
         "id":2,
         "name":"Trampolines",
         "opacity":1,
         "type":"tilelayer",
         "visible":true,
         "width":25,
         "x":0,
         "y":0
        }, 
        {
         "compression":"zlib",
         "data":"eJzt07EJADAMAzBD\/v+5Q7uHDlmCBH7A2Akb1AuXLnoVu4Ef\/gIAAABzDtQHABk=",
         "encoding":"base64",
         "height":58,
         "id":3,
         "name":"Deadly",
         "opacity":1,
         "type":"tilelayer",
         "visible":true,
         "width":25,
         "x":0,
         "y":0
        }],
 "nextlayerid":4,
 "nextobjectid":1,
 "orientation":"orthogonal",
 "renderorder":"right-down",
 "tiledversion":"1.6.0",
 "tileheight":32,
 "tilesets":[
        {
         "firstgid":1,
         "source":"..\/tiles.json"
        }],
 "tilewidth":32,
 "type":"map",
 "version":"1.6",
 "width":25
}